{
    "name": "Blanoidlenland"
}
%%
2430
2431
2559
2560
2561
2683
2684
2685
2686
2807
2808
2809
2810
2811
2813
2931
2932
2933
2934
2935
2936
2937
3067
3068
3069
3070
3071
3072
3201
3202
3203
3204
3205
3206
3207
3208
3209
3210
3340
3341
3342
3343
3344
3345
3478
3479
3480
3481
3482
3483
3484
3614
