{
    "name": "Ourequa"
}
%%
1047
1048
1049
1050
1051
1052
1053
1054
1177
1178
1179
1180
1181
1182
1183
1312
1313
1315
1316
1317
1318
1319
1320
1321
1322
1323
1448
1449
1450
1451
1452
1453
1454
1455
1456
1457
1458
1459
1587
1588
1589
1590
1591
1592
1593
1707
1708
1834
424
425
426
537
538
539
540
541
542
543
655
656
659
660
661
662
663
664
665
666
786
787
788
790
791
792
793
916
917
918
919
921
922
923
924
925
926
